Name,Vorname,Anmeldename,HauptOU,UnterOU,Globale_Gruppe1,Globale_Gruppe2, Globale_Gruppe3
Mahn,	     Wolfgang,  Mahn,	   Geschaeftsleitung,	, Geschaeftsleitung.G, Personal.G,	
Schneider,   Helga,     Schneider, Geschaeftsleitung,	, Personal.G,		          ,
Zet,	     Anne,      Zet,	   Geschaeftsleitung,	, Personal.G,		          ,
Lemmon,      Sabine,    Lemmon,	   Auftragsbearbeitung, , Auftrag.G, Management.G,	
Mall,	     Tom,       Mall,	   Auftragsbearbeitung,	, Auftrag.G,		           ,
Schmidt,     Peter,     Schmidt,   Auftragsbearbeitung,	, Auftrag.G,		           ,
Wolz,	     Werner,    Wolz,	   ServiceUndSupport,NetzwerkUndWerkstatt,	Support.G, Management.G,	
Peters,      Claus,     Peters,	   ServiceUndSupport, NetzwerkUWerkstatt, Support.G,                 ,		
Uhland,      Bernd,     Uhland,	   ServiceUndSupport, NetzwerkUWerkstatt, Support.G,                 ,		
Inner,       Hans,      Inner,	   ServiceUndSupport,	MultiMedia, Support.G,	        Multimedia.G,	
Klein,       Holger,    Klein,	   SoftwareUndTraining, ,Software.G, Management.G, Training.G
Fling,       Elena,     Fling,	   SoftwareUndTraining,	,Software.G,		     ,                    
Orfner,      Dieter,    Orfner,	   SoftwareUndTraining,	,Software.G,                  ,                  		
Werner,      Inge,      Werner,	   SoftwareUndTraining,	,Software.G,	 Training.G,	