Name, LoginName, Email, Passwort, Beruf, Klasse, Gruppe1, Gruppe2, Gruppe3
Steinam, STE_2018, steinam@klara-oppenheimer-schule.de, EST_!!_7653, IT, 10FI1, Schueler, IT, 18-FI1
Lange, LAM_2018, lange@klara-oppenheimer-schule.de, MAL_!!_8729, EH, 10EH2, Schueler, EH, 18-EH2
Meier, MEI_2018, meier@klara-oppenheimer-schule.de, MIE_!!_3846, MFA, 10MF3, Schueler, MFA, 18-MF3
Müller, MUE_2018, mueller@klara-oppenheimer-schule.de, MUE_!!_3712, MFA, 10MF3, Schueler, MFA, 18-MF3
Schulze, SCU_2018, schulze.m@klara-oppenheimer-schule.de, SCU_!!_7623, EH, 10EH2, Schueler, EH, 18-EH2
Huber, HUB_2018, huber@klara-oppenheimer-schule.de, HUB_!!_7653, IT, 10FI1, Schueler, IT, 18-FI1
Porcelli, POR_2018, porcelli@klara-oppenheimer-schule.de, POR_!!_7653, IT, 10FI1, Schueler, IT, 18-FI1
